…
Sorting the Author Keywords

Looking at the Author_Keywords variable, each value is actually a list of grouped keywords separated by semicolons. What we want is every phrase to be considered as its own keyword in the value.

d %>% 
    select(Author_Keywords) %>% 
    mutate(Author_Keywords = str_split(Author_Keywords, "; ")) 

## # A tibble: 7,614 x 1
##    Author_Keywords
##             <list>
##  1       <chr [4]>
##  2       <chr [6]>
##  3       <chr [4]>
##  4       <chr [5]>
##  5       <chr [5]>
##  6       <chr [3]>
##  7       <chr [3]>
##  8       <chr [6]>
##  9       <chr [3]>
## 10       <chr [3]>
## # ... with 7,604 more rows
…
